[
  {
    "title": "User Name 2 celebrates her Birthday!",
    "date": "August 4, 2015"
  },
  {
    "title": "Knowledge Day",
    "date": "August 7, 2015"
  },
  {
    "title": "User Name 1 invites you to celebrate her Birthday!",
    "date": "August 11, 2015"
  }
]